(95, -121)
(25, -108)
(103, -131)
(85, -112)
(-10, -153)
(89, -114)
(6, -120)
(41, -101)
(104, -129)
(10, -115)
(71, -103)
(-8, -140)
(12, -113)
(8, -116)
(11, -113)
(91, -113)
(-13, -166)
(102, -124)
(45, -99)
(33, -101)
(-2, -126)
(78, -104)
(105, -127)
(84, -107)
(71, -101)
(-9, -137)
(11, -111)
(29, -101)
(12, -110)
(53, -97)
(-8, -133)
(12, -109)
(60, -97)
(10, -110)
(74, -100)
(100, -117)
(27, -100)
(-5, -125)
(3, -115)
(98, -114)
(-4, -123)
(106, -123)
(-16, -150)
(13, -106)
(69, -96)
(-9, -128)
(-19, -162)
(-2, -117)
(27, -97)
(106, -119)
(11, -105)
(-12, -131)
(9, -106)
(93, -220)
(-4, -118)
(20, -99)
(7, -107)
(29, -95)
(40, -92)
(52, -91)
(54, -91)
(48, -91)
(55, -91)
(14, -101)
(-20, -148)
(74, -94)
(20, -97)
(14, -100)
(37, -91)
(29, -93)
(-22, -155)
(66, -91)
(-19, -140)
(31, -92)
(98, -106)
(34, -91)
(109, -117)
(87, -98)
(-23, -156)
(4, -105)
(97, -104)
(111, -118)
(-24, -159)
(7, -102)
(-24, -157)
(-24, -156)
(97, -103)
(-23, -146)
(-25, -160)
(38, -88)
(69, -89)
(-26, -160)
(6, -99)
(43, -85)
(-4, -107)
(-14, -119)
(104, -105)
(-12, -116)
(115, -117)
(112, -113)