(-30|-78)
(-27|-79)
(-38|-72)
(-42|-74)
(-45|-80)
(-44|-83)
(-32|-67)
(-42|-86)
(-36|-66)
(-30|-66)
(-41|-67)
(-47|-81)
(-40|-66)
(-21|-82)
(-43|-67)
(-47|-84)
(-47|-72)
(-48|-74)
(-47|-85)
(-49|-76)
(-45|-89)
(-49|-83)
(-19|-84)
(-18|-81)
(-49|-86)
(-26|-93)
(-21|-89)
(-28|-62)
(-17|-81)
(-39|-61)
(-26|-94)
(-51|-84)
(-24|-63)
(-17|-86)
(-52|-84)
(-53|-79)
(-17|-87)
(-41|-96)
(-53|-84)
(-53|-85)
(-54|-83)
(-53|-86)
(-55|-80)
(-16|-89)
(-55|-73)
(-43|-98)
(-56|-76)
(-41|-57)
(-16|-91)
(-56|-82)
(-22|-97)
(-56|-83)
(-18|-94)
(-21|-59)
(-14|-91)
(-10|-73)
(-53|-62)
(-10|-71)
(-44|-55)
(-38|-53)
(-12|-91)
(-14|-94)
(-22|-101)
(-44|-54)
(-8|-81)
(-43|-53)
(-9|-69)
(-44|-53)
(-34|-51)
(-51|-99)
(-60|-86)
(-12|-94)
(-7|-83)
(-14|-59)
(-61|-70)
(-60|-65)
(-42|-106)
(-22|-105)
(-50|-103)
(-21|-51)
(-32|-48)
(-23|-106)
(-31|-108)
(-7|-92)
(-4|-85)
(-33|-109)
(-64|-86)
(-32|-109)
(-46|-107)
(-63|-65)
(-66|-79)
(-37|-46)
(-31|-110)
(-62|-62)
(-65|-87)
(-66|-73)
(-57|-55)
(-58|-100)
(-28|-110)


