(-47|-48)
(-66|-71)
(-43|-46)
(-24|-46)
(-49|-48)
(-27|-111)
(-50|-48)
(-67|-87)
(-56|-51)
(-66|-92)
(-34|-113)
(-36|-113)
(-63|-58)
(-65|-61)
(-67|-91)
(-2|-62)
(-5|-99)
(-46|-112)
(-60|-53)
(-21|-44)
(-18|-45)
(-71|-78)
(-63|-101)
(-71|-82)
(-53|-110)
(-59|-106)
(-23|-114)
(2|-90)
(-49|-113)
(-1|-97)
(-64|-54)
(-68|-60)
(-69|-62)
(-50|-113)
(-49|-114)
(-67|-57)
(-38|-39)
(-70|-62)
(-48|-115)
(1|-97)
(-49|-41)
(-67|-55)
(2|-96)
(-41|-118)
(-50|-116)
(-56|-43)
(6|-89)
(-4|-107)
(-57|-113)
(-25|-119)
(7|-87)
(-76|-79)
(-8|-111)
(-52|-40)
(-68|-53)
(-24|-119)
(-74|-64)
(-40|-120)
(-69|-54)
(-53|-40)
(-27|-36)
(-77|-78)
(-69|-53)
(-33|-35)
(-12|-115)
(-77|-75)
(-39|-121)
(-68|-105)
(-49|-119)
(-12|-116)
(-76|-91)
(-47|-120)
(-77|-90)
(7|-60)
(-21|-35)
(6|-99)
(7|-59)
(-20|-35)
(-72|-53)
(-49|-121)
(-27|-123)
(-14|-119)
(7|-58)
(-52|-36)
(-76|-59)
(-48|-34)
(-63|-42)
(-71|-50)
(-19|-34)
(-54|-120)
(4|-105)
(-26|-124)
(-60|-39)
(-11|-119)
(-79|-64)
(-80|-89)
(7|-102)
(-81|-71)
(-21|-32)