(-11|-120)
(-48|-124)
(-71|-109)
(-41|-30)
(-22|-31)
(-82|-86)
(-42|-126)
(12|-94)
(-68|-113)
(15|-79)
(15|-77)
(-82|-88)
(-72|-47)
(-37|-127)
(-12|-34)
(-19|-31)
(-83|-71)
(-27|-29)
(-67|-41)
(-82|-65)
(-76|-51)
(-81|-95)
(-4|-118)
(7|-107)
(-1|-116)
(-2|-117)
(-74|-47)
(-53|-125)
(2|-114)
(14|-95)
(-33|-129)
(17|-79)
(-1|-117)
(17|-83)
(-52|-30)
(9|-106)
(-78|-105)
(4|-43)
(-73|-44)
(-43|-27)
(-85|-67)
(-84|-63)
(-76|-47)
(-81|-55)
(3|-115)
(-86|-84)
(-40|-26)
(11|-105)
(-1|-119)
(-63|-122)
(-66|-120)
(14|-100)
(-54|-127)
(18|-88)
(-87|-79)
(-3|-121)
(14|-101)
(-53|-128)
(-5|-123)
(-2|-121)
(-83|-100)
(-84|-98)
(-54|-128)
(-36|-132)
(-4|-123)
(-57|-29)
(-45|-131)
(-61|-125)
(-87|-90)
(19|-90)
(10|-110)
(6|-115)
(-42|-132)
(-8|-30)
(13|-106)
(20|-69)
(-84|-101)
(-61|-126)
(-39|-133)
(-5|-125)
(-53|-26)
(19|-62)
(12|-109)
(-85|-56)
(-43|-133)
(-88|-64)
(11|-111)
(-9|-128)
(19|-96)
(-66|-124)
(-2|-124)
(12|-110)
(-88|-63)
(19|-97)
(-50|-132)
(-47|-133)
(14|-48)
(8|-116)
(-81|-46)